%YAML 1.1
%TAG !u! tag:unity3d.com,2011:
--- !u!114 &11400000
MonoBehaviour:
  m_ObjectHideFlags: 0
  m_CorrespondingSourceObject: {fileID: 0}
  m_PrefabInstance: {fileID: 0}
  m_PrefabAsset: {fileID: 0}
  m_GameObject: {fileID: 0}
  m_Enabled: 1
  m_EditorHideFlags: 0
  m_Script: {fileID: 11500000, guid: f2e75715568256f44ae8f06fa5d9ae8a, type: 3}
  m_Name: New Actor
  m_EditorClassIdentifier: 
  emotions:
  - name: Happy
    iddle: []
    talking: []
  - name: Angry
    iddle: []
    talking: []
