%YAML 1.1
%TAG !u! tag:unity3d.com,2011:
--- !u!114 &11400000
MonoBehaviour:
  m_ObjectHideFlags: 0
  m_CorrespondingSourceObject: {fileID: 0}
  m_PrefabInstance: {fileID: 0}
  m_PrefabAsset: {fileID: 0}
  m_GameObject: {fileID: 0}
  m_Enabled: 1
  m_EditorHideFlags: 0
  m_Script: {fileID: 11500000, guid: f6e5a7529d3075648b4d83c3901b730e, type: 3}
  m_Name: City01
  m_EditorClassIdentifier: 
  left_Column:
  - prefab: {fileID: 1020909030580254, guid: 788ea8002fc03a64d9d210a20b3805f0, type: 3}
    icon: {fileID: 0}
  - prefab: {fileID: 1020909030580254, guid: f41166c1b4d66f1448f9171e64eb7f8d, type: 3}
    icon: {fileID: 0}
  - prefab: {fileID: 1020909030580254, guid: 6979209e837a4434580d07f632fe6d10, type: 3}
    icon: {fileID: 0}
  - prefab: {fileID: 1020909030580254, guid: 7669253464bd0c94c9db96d288f23111, type: 3}
    icon: {fileID: 0}
  - prefab: {fileID: 1020909030580254, guid: bf7eed1a5f930344b8798b2355f9fa3a, type: 3}
    icon: {fileID: 0}
  right_Column:
  - prefab: {fileID: 1020909030580254, guid: 9676ea319030d1f49ac3a5866509e523, type: 3}
    icon: {fileID: 0}
  - prefab: {fileID: 1020909030580254, guid: 5d74d8f25d3d2594594921878b9b9cf6, type: 3}
    icon: {fileID: 0}
  - prefab: {fileID: 1020909030580254, guid: f41166c1b4d66f1448f9171e64eb7f8d, type: 3}
    icon: {fileID: 0}
  - prefab: {fileID: 1020909030580254, guid: 6979209e837a4434580d07f632fe6d10, type: 3}
    icon: {fileID: 0}
  - prefab: {fileID: 1020909030580254, guid: bf7eed1a5f930344b8798b2355f9fa3a, type: 3}
    icon: {fileID: 0}
  nextMapSheet: {fileID: 0}
  loop: 0
  random: 0
