%YAML 1.1
%TAG !u! tag:unity3d.com,2011:
--- !u!114 &11400000
MonoBehaviour:
  m_ObjectHideFlags: 0
  m_CorrespondingSourceObject: {fileID: 0}
  m_PrefabInstance: {fileID: 0}
  m_PrefabAsset: {fileID: 0}
  m_GameObject: {fileID: 0}
  m_Enabled: 1
  m_EditorHideFlags: 0
  m_Script: {fileID: 11500000, guid: f25d81caaea97e2429d64e0cd5b35f0a, type: 3}
  m_Name: Mission 1
  m_EditorClassIdentifier: 
  name: Crime Waves
  description: These criminals think they can get away with robbing a bank? Better
    think twice, because Jet and Sky are here!
  level: {fileID: 0}
