%YAML 1.1
%TAG !u! tag:unity3d.com,2011:
--- !u!13 &1
InputManager:
  m_ObjectHideFlags: 0
  serializedVersion: 2
  m_Axes:
  - serializedVersion: 3
    m_Name: joystick 1 analog 0
    descriptiveName: 
    descriptiveNegativeName: 
    negativeButton: 
    positiveButton: 
    altNegativeButton: 
    altPositiveButton: 
    gravity: 0
    dead: 0.001
    sensitivity: 1
    snap: 0
    invert: 0
    type: 2
    axis: 0
    joyNum: 1
  - serializedVersion: 3
    m_Name: joystick 1 analog 1
    descriptiveName: 
    descriptiveNegativeName: 
    negativeButton: 
    positiveButton: 
    altNegativeButton: 
    altPositiveButton: 
    gravity: 0
    dead: 0.001
    sensitivity: 1
    snap: 0
    invert: 0
    type: 2
    axis: 1
    joyNum: 1
  - serializedVersion: 3
    m_Name: joystick 1 analog 2
    descriptiveName: 
    descriptiveNegativeName: 
    negativeButton: 
    positiveButton: 
    altNegativeButton: 
    altPositiveButton: 
    gravity: 0
    dead: 0.001
    sensitivity: 1
    snap: 0
    invert: 0
    type: 2
    axis: 2
    joyNum: 1
  - serializedVersion: 3
    m_Name: joystick 1 analog 3
    descriptiveName: 
    descriptiveNegativeName: 
    negativeButton: 
    positiveButton: 
    altNegativeButton: 
    altPositiveButton: 
    gravity: 0
    dead: 0.001
    sensitivity: 1
    snap: 0
    invert: 0
    type: 2
    axis: 3
    joyNum: 1
  - serializedVersion: 3
    m_Name: joystick 1 analog 4
    descriptiveName: 
    descriptiveNegativeName: 
    negativeButton: 
    positiveButton: 
    altNegativeButton: 
    altPositiveButton: 
    gravity: 0
    dead: 0.001
    sensitivity: 1
    snap: 0
    invert: 0
    type: 2
    axis: 4
    joyNum: 1
  - serializedVersion: 3
    m_Name: joystick 1 analog 5
    descriptiveName: 
    descriptiveNegativeName: 
    negativeButton: 
    positiveButton: 
    altNegativeButton: 
    altPositiveButton: 
    gravity: 0
    dead: 0.001
    sensitivity: 1
    snap: 0
    invert: 0
    type: 2
    axis: 5
    joyNum: 1
  - serializedVersion: 3
    m_Name: joystick 1 analog 6
    descriptiveName: 
    descriptiveNegativeName: 
    negativeButton: 
    positiveButton: 
    altNegativeButton: 
    altPositiveButton: 
    gravity: 0
    dead: 0.001
    sensitivity: 1
    snap: 0
    invert: 0
    type: 2
    axis: 6
    joyNum: 1
  - serializedVersion: 3
    m_Name: joystick 1 analog 7
    descriptiveName: 
    descriptiveNegativeName: 
    negativeButton: 
    positiveButton: 
    altNegativeButton: 
    altPositiveButton: 
    gravity: 0
    dead: 0.001
    sensitivity: 1
    snap: 0
    invert: 0
    type: 2
    axis: 7
    joyNum: 1
  - serializedVersion: 3
    m_Name: joystick 1 analog 8
    descriptiveName: 
    descriptiveNegativeName: 
    negativeButton: 
    positiveButton: 
    altNegativeButton: 
    altPositiveButton: 
    gravity: 0
    dead: 0.001
    sensitivity: 1
    snap: 0
    invert: 0
    type: 2
    axis: 8
    joyNum: 1
  - serializedVersion: 3
    m_Name: joystick 1 analog 9
    descriptiveName: 
    descriptiveNegativeName: 
    negativeButton: 
    positiveButton: 
    altNegativeButton: 
    altPositiveButton: 
    gravity: 0
    dead: 0.001
    sensitivity: 1
    snap: 0
    invert: 0
    type: 2
    axis: 9
    joyNum: 1
  - serializedVersion: 3
    m_Name: joystick 1 analog 10
    descriptiveName: 
    descriptiveNegativeName: 
    negativeButton: 
    positiveButton: 
    altNegativeButton: 
    altPositiveButton: 
    gravity: 0
    dead: 0.001
    sensitivity: 1
    snap: 0
    invert: 0
    type: 2
    axis: 10
    joyNum: 1
  - serializedVersion: 3
    m_Name: joystick 1 analog 11
    descriptiveName: 
    descriptiveNegativeName: 
    negativeButton: 
    positiveButton: 
    altNegativeButton: 
    altPositiveButton: 
    gravity: 0
    dead: 0.001
    sensitivity: 1
    snap: 0
    invert: 0
    type: 2
    axis: 11
    joyNum: 1
  - serializedVersion: 3
    m_Name: joystick 1 analog 12
    descriptiveName: 
    descriptiveNegativeName: 
    negativeButton: 
    positiveButton: 
    altNegativeButton: 
    altPositiveButton: 
    gravity: 0
    dead: 0.001
    sensitivity: 1
    snap: 0
    invert: 0
    type: 2
    axis: 12
    joyNum: 1
  - serializedVersion: 3
    m_Name: joystick 1 analog 13
    descriptiveName: 
    descriptiveNegativeName: 
    negativeButton: 
    positiveButton: 
    altNegativeButton: 
    altPositiveButton: 
    gravity: 0
    dead: 0.001
    sensitivity: 1
    snap: 0
    invert: 0
    type: 2
    axis: 13
    joyNum: 1
  - serializedVersion: 3
    m_Name: joystick 1 analog 14
    descriptiveName: 
    descriptiveNegativeName: 
    negativeButton: 
    positiveButton: 
    altNegativeButton: 
    altPositiveButton: 
    gravity: 0
    dead: 0.001
    sensitivity: 1
    snap: 0
    invert: 0
    type: 2
    axis: 14
    joyNum: 1
  - serializedVersion: 3
    m_Name: joystick 1 analog 15
    descriptiveName: 
    descriptiveNegativeName: 
    negativeButton: 
    positiveButton: 
    altNegativeButton: 
    altPositiveButton: 
    gravity: 0
    dead: 0.001
    sensitivity: 1
    snap: 0
    invert: 0
    type: 2
    axis: 15
    joyNum: 1
  - serializedVersion: 3
    m_Name: joystick 1 analog 16
    descriptiveName: 
    descriptiveNegativeName: 
    negativeButton: 
    positiveButton: 
    altNegativeButton: 
    altPositiveButton: 
    gravity: 0
    dead: 0.001
    sensitivity: 1
    snap: 0
    invert: 0
    type: 2
    axis: 16
    joyNum: 1
  - serializedVersion: 3
    m_Name: joystick 1 analog 17
    descriptiveName: 
    descriptiveNegativeName: 
    negativeButton: 
    positiveButton: 
    altNegativeButton: 
    altPositiveButton: 
    gravity: 0
    dead: 0.001
    sensitivity: 1
    snap: 0
    invert: 0
    type: 2
    axis: 17
    joyNum: 1
  - serializedVersion: 3
    m_Name: joystick 1 analog 18
    descriptiveName: 
    descriptiveNegativeName: 
    negativeButton: 
    positiveButton: 
    altNegativeButton: 
    altPositiveButton: 
    gravity: 0
    dead: 0.001
    sensitivity: 1
    snap: 0
    invert: 0
    type: 2
    axis: 18
    joyNum: 1
  - serializedVersion: 3
    m_Name: joystick 1 analog 19
    descriptiveName: 
    descriptiveNegativeName: 
    negativeButton: 
    positiveButton: 
    altNegativeButton: 
    altPositiveButton: 
    gravity: 0
    dead: 0.001
    sensitivity: 1
    snap: 0
    invert: 0
    type: 2
    axis: 19
    joyNum: 1
  - serializedVersion: 3
    m_Name: joystick 2 analog 0
    descriptiveName: 
    descriptiveNegativeName: 
    negativeButton: 
    positiveButton: 
    altNegativeButton: 
    altPositiveButton: 
    gravity: 0
    dead: 0.001
    sensitivity: 1
    snap: 0
    invert: 0
    type: 2
    axis: 0
    joyNum: 2
  - serializedVersion: 3
    m_Name: joystick 2 analog 1
    descriptiveName: 
    descriptiveNegativeName: 
    negativeButton: 
    positiveButton: 
    altNegativeButton: 
    altPositiveButton: 
    gravity: 0
    dead: 0.001
    sensitivity: 1
    snap: 0
    invert: 0
    type: 2
    axis: 1
    joyNum: 2
  - serializedVersion: 3
    m_Name: joystick 2 analog 2
    descriptiveName: 
    descriptiveNegativeName: 
    negativeButton: 
    positiveButton: 
    altNegativeButton: 
    altPositiveButton: 
    gravity: 0
    dead: 0.001
    sensitivity: 1
    snap: 0
    invert: 0
    type: 2
    axis: 2
    joyNum: 2
  - serializedVersion: 3
    m_Name: joystick 2 analog 3
    descriptiveName: 
    descriptiveNegativeName: 
    negativeButton: 
    positiveButton: 
    altNegativeButton: 
    altPositiveButton: 
    gravity: 0
    dead: 0.001
    sensitivity: 1
    snap: 0
    invert: 0
    type: 2
    axis: 3
    joyNum: 2
  - serializedVersion: 3
    m_Name: joystick 2 analog 4
    descriptiveName: 
    descriptiveNegativeName: 
    negativeButton: 
    positiveButton: 
    altNegativeButton: 
    altPositiveButton: 
    gravity: 0
    dead: 0.001
    sensitivity: 1
    snap: 0
    invert: 0
    type: 2
    axis: 4
    joyNum: 2
  - serializedVersion: 3
    m_Name: joystick 2 analog 5
    descriptiveName: 
    descriptiveNegativeName: 
    negativeButton: 
    positiveButton: 
    altNegativeButton: 
    altPositiveButton: 
    gravity: 0
    dead: 0.001
    sensitivity: 1
    snap: 0
    invert: 0
    type: 2
    axis: 5
    joyNum: 2
  - serializedVersion: 3
    m_Name: joystick 2 analog 6
    descriptiveName: 
    descriptiveNegativeName: 
    negativeButton: 
    positiveButton: 
    altNegativeButton: 
    altPositiveButton: 
    gravity: 0
    dead: 0.001
    sensitivity: 1
    snap: 0
    invert: 0
    type: 2
    axis: 6
    joyNum: 2
  - serializedVersion: 3
    m_Name: joystick 2 analog 7
    descriptiveName: 
    descriptiveNegativeName: 
    negativeButton: 
    positiveButton: 
    altNegativeButton: 
    altPositiveButton: 
    gravity: 0
    dead: 0.001
    sensitivity: 1
    snap: 0
    invert: 0
    type: 2
    axis: 7
    joyNum: 2
  - serializedVersion: 3
    m_Name: joystick 2 analog 8
    descriptiveName: 
    descriptiveNegativeName: 
    negativeButton: 
    positiveButton: 
    altNegativeButton: 
    altPositiveButton: 
    gravity: 0
    dead: 0.001
    sensitivity: 1
    snap: 0
    invert: 0
    type: 2
    axis: 8
    joyNum: 2
  - serializedVersion: 3
    m_Name: joystick 2 analog 9
    descriptiveName: 
    descriptiveNegativeName: 
    negativeButton: 
    positiveButton: 
    altNegativeButton: 
    altPositiveButton: 
    gravity: 0
    dead: 0.001
    sensitivity: 1
    snap: 0
    invert: 0
    type: 2
    axis: 9
    joyNum: 2
  - serializedVersion: 3
    m_Name: joystick 2 analog 10
    descriptiveName: 
    descriptiveNegativeName: 
    negativeButton: 
    positiveButton: 
    altNegativeButton: 
    altPositiveButton: 
    gravity: 0
    dead: 0.001
    sensitivity: 1
    snap: 0
    invert: 0
    type: 2
    axis: 10
    joyNum: 2
  - serializedVersion: 3
    m_Name: joystick 2 analog 11
    descriptiveName: 
    descriptiveNegativeName: 
    negativeButton: 
    positiveButton: 
    altNegativeButton: 
    altPositiveButton: 
    gravity: 0
    dead: 0.001
    sensitivity: 1
    snap: 0
    invert: 0
    type: 2
    axis: 11
    joyNum: 2
  - serializedVersion: 3
    m_Name: joystick 2 analog 12
    descriptiveName: 
    descriptiveNegativeName: 
    negativeButton: 
    positiveButton: 
    altNegativeButton: 
    altPositiveButton: 
    gravity: 0
    dead: 0.001
    sensitivity: 1
    snap: 0
    invert: 0
    type: 2
    axis: 12
    joyNum: 2
  - serializedVersion: 3
    m_Name: joystick 2 analog 13
    descriptiveName: 
    descriptiveNegativeName: 
    negativeButton: 
    positiveButton: 
    altNegativeButton: 
    altPositiveButton: 
    gravity: 0
    dead: 0.001
    sensitivity: 1
    snap: 0
    invert: 0
    type: 2
    axis: 13
    joyNum: 2
  - serializedVersion: 3
    m_Name: joystick 2 analog 14
    descriptiveName: 
    descriptiveNegativeName: 
    negativeButton: 
    positiveButton: 
    altNegativeButton: 
    altPositiveButton: 
    gravity: 0
    dead: 0.001
    sensitivity: 1
    snap: 0
    invert: 0
    type: 2
    axis: 14
    joyNum: 2
  - serializedVersion: 3
    m_Name: joystick 2 analog 15
    descriptiveName: 
    descriptiveNegativeName: 
    negativeButton: 
    positiveButton: 
    altNegativeButton: 
    altPositiveButton: 
    gravity: 0
    dead: 0.001
    sensitivity: 1
    snap: 0
    invert: 0
    type: 2
    axis: 15
    joyNum: 2
  - serializedVersion: 3
    m_Name: joystick 2 analog 16
    descriptiveName: 
    descriptiveNegativeName: 
    negativeButton: 
    positiveButton: 
    altNegativeButton: 
    altPositiveButton: 
    gravity: 0
    dead: 0.001
    sensitivity: 1
    snap: 0
    invert: 0
    type: 2
    axis: 16
    joyNum: 2
  - serializedVersion: 3
    m_Name: joystick 2 analog 17
    descriptiveName: 
    descriptiveNegativeName: 
    negativeButton: 
    positiveButton: 
    altNegativeButton: 
    altPositiveButton: 
    gravity: 0
    dead: 0.001
    sensitivity: 1
    snap: 0
    invert: 0
    type: 2
    axis: 17
    joyNum: 2
  - serializedVersion: 3
    m_Name: joystick 2 analog 18
    descriptiveName: 
    descriptiveNegativeName: 
    negativeButton: 
    positiveButton: 
    altNegativeButton: 
    altPositiveButton: 
    gravity: 0
    dead: 0.001
    sensitivity: 1
    snap: 0
    invert: 0
    type: 2
    axis: 18
    joyNum: 2
  - serializedVersion: 3
    m_Name: joystick 2 analog 19
    descriptiveName: 
    descriptiveNegativeName: 
    negativeButton: 
    positiveButton: 
    altNegativeButton: 
    altPositiveButton: 
    gravity: 0
    dead: 0.001
    sensitivity: 1
    snap: 0
    invert: 0
    type: 2
    axis: 19
    joyNum: 2
  - serializedVersion: 3
    m_Name: joystick 3 analog 0
    descriptiveName: 
    descriptiveNegativeName: 
    negativeButton: 
    positiveButton: 
    altNegativeButton: 
    altPositiveButton: 
    gravity: 0
    dead: 0.001
    sensitivity: 1
    snap: 0
    invert: 0
    type: 2
    axis: 0
    joyNum: 3
  - serializedVersion: 3
    m_Name: joystick 3 analog 1
    descriptiveName: 
    descriptiveNegativeName: 
    negativeButton: 
    positiveButton: 
    altNegativeButton: 
    altPositiveButton: 
    gravity: 0
    dead: 0.001
    sensitivity: 1
    snap: 0
    invert: 0
    type: 2
    axis: 1
    joyNum: 3
  - serializedVersion: 3
    m_Name: joystick 3 analog 2
    descriptiveName: 
    descriptiveNegativeName: 
    negativeButton: 
    positiveButton: 
    altNegativeButton: 
    altPositiveButton: 
    gravity: 0
    dead: 0.001
    sensitivity: 1
    snap: 0
    invert: 0
    type: 2
    axis: 2
    joyNum: 3
  - serializedVersion: 3
    m_Name: joystick 3 analog 3
    descriptiveName: 
    descriptiveNegativeName: 
    negativeButton: 
    positiveButton: 
    altNegativeButton: 
    altPositiveButton: 
    gravity: 0
    dead: 0.001
    sensitivity: 1
    snap: 0
    invert: 0
    type: 2
    axis: 3
    joyNum: 3
  - serializedVersion: 3
    m_Name: joystick 3 analog 4
    descriptiveName: 
    descriptiveNegativeName: 
    negativeButton: 
    positiveButton: 
    altNegativeButton: 
    altPositiveButton: 
    gravity: 0
    dead: 0.001
    sensitivity: 1
    snap: 0
    invert: 0
    type: 2
    axis: 4
    joyNum: 3
  - serializedVersion: 3
    m_Name: joystick 3 analog 5
    descriptiveName: 
    descriptiveNegativeName: 
    negativeButton: 
    positiveButton: 
    altNegativeButton: 
    altPositiveButton: 
    gravity: 0
    dead: 0.001
    sensitivity: 1
    snap: 0
    invert: 0
    type: 2
    axis: 5
    joyNum: 3
  - serializedVersion: 3
    m_Name: joystick 3 analog 6
    descriptiveName: 
    descriptiveNegativeName: 
    negativeButton: 
    positiveButton: 
    altNegativeButton: 
    altPositiveButton: 
    gravity: 0
    dead: 0.001
    sensitivity: 1
    snap: 0
    invert: 0
    type: 2
    axis: 6
    joyNum: 3
  - serializedVersion: 3
    m_Name: joystick 3 analog 7
    descriptiveName: 
    descriptiveNegativeName: 
    negativeButton: 
    positiveButton: 
    altNegativeButton: 
    altPositiveButton: 
    gravity: 0
    dead: 0.001
    sensitivity: 1
    snap: 0
    invert: 0
    type: 2
    axis: 7
    joyNum: 3
  - serializedVersion: 3
    m_Name: joystick 3 analog 8
    descriptiveName: 
    descriptiveNegativeName: 
    negativeButton: 
    positiveButton: 
    altNegativeButton: 
    altPositiveButton: 
    gravity: 0
    dead: 0.001
    sensitivity: 1
    snap: 0
    invert: 0
    type: 2
    axis: 8
    joyNum: 3
  - serializedVersion: 3
    m_Name: joystick 3 analog 9
    descriptiveName: 
    descriptiveNegativeName: 
    negativeButton: 
    positiveButton: 
    altNegativeButton: 
    altPositiveButton: 
    gravity: 0
    dead: 0.001
    sensitivity: 1
    snap: 0
    invert: 0
    type: 2
    axis: 9
    joyNum: 3
  - serializedVersion: 3
    m_Name: joystick 3 analog 10
    descriptiveName: 
    descriptiveNegativeName: 
    negativeButton: 
    positiveButton: 
    altNegativeButton: 
    altPositiveButton: 
    gravity: 0
    dead: 0.001
    sensitivity: 1
    snap: 0
    invert: 0
    type: 2
    axis: 10
    joyNum: 3
  - serializedVersion: 3
    m_Name: joystick 3 analog 11
    descriptiveName: 
    descriptiveNegativeName: 
    negativeButton: 
    positiveButton: 
    altNegativeButton: 
    altPositiveButton: 
    gravity: 0
    dead: 0.001
    sensitivity: 1
    snap: 0
    invert: 0
    type: 2
    axis: 11
    joyNum: 3
  - serializedVersion: 3
    m_Name: joystick 3 analog 12
    descriptiveName: 
    descriptiveNegativeName: 
    negativeButton: 
    positiveButton: 
    altNegativeButton: 
    altPositiveButton: 
    gravity: 0
    dead: 0.001
    sensitivity: 1
    snap: 0
    invert: 0
    type: 2
    axis: 12
    joyNum: 3
  - serializedVersion: 3
    m_Name: joystick 3 analog 13
    descriptiveName: 
    descriptiveNegativeName: 
    negativeButton: 
    positiveButton: 
    altNegativeButton: 
    altPositiveButton: 
    gravity: 0
    dead: 0.001
    sensitivity: 1
    snap: 0
    invert: 0
    type: 2
    axis: 13
    joyNum: 3
  - serializedVersion: 3
    m_Name: joystick 3 analog 14
    descriptiveName: 
    descriptiveNegativeName: 
    negativeButton: 
    positiveButton: 
    altNegativeButton: 
    altPositiveButton: 
    gravity: 0
    dead: 0.001
    sensitivity: 1
    snap: 0
    invert: 0
    type: 2
    axis: 14
    joyNum: 3
  - serializedVersion: 3
    m_Name: joystick 3 analog 15
    descriptiveName: 
    descriptiveNegativeName: 
    negativeButton: 
    positiveButton: 
    altNegativeButton: 
    altPositiveButton: 
    gravity: 0
    dead: 0.001
    sensitivity: 1
    snap: 0
    invert: 0
    type: 2
    axis: 15
    joyNum: 3
  - serializedVersion: 3
    m_Name: joystick 3 analog 16
    descriptiveName: 
    descriptiveNegativeName: 
    negativeButton: 
    positiveButton: 
    altNegativeButton: 
    altPositiveButton: 
    gravity: 0
    dead: 0.001
    sensitivity: 1
    snap: 0
    invert: 0
    type: 2
    axis: 16
    joyNum: 3
  - serializedVersion: 3
    m_Name: joystick 3 analog 17
    descriptiveName: 
    descriptiveNegativeName: 
    negativeButton: 
    positiveButton: 
    altNegativeButton: 
    altPositiveButton: 
    gravity: 0
    dead: 0.001
    sensitivity: 1
    snap: 0
    invert: 0
    type: 2
    axis: 17
    joyNum: 3
  - serializedVersion: 3
    m_Name: joystick 3 analog 18
    descriptiveName: 
    descriptiveNegativeName: 
    negativeButton: 
    positiveButton: 
    altNegativeButton: 
    altPositiveButton: 
    gravity: 0
    dead: 0.001
    sensitivity: 1
    snap: 0
    invert: 0
    type: 2
    axis: 18
    joyNum: 3
  - serializedVersion: 3
    m_Name: joystick 3 analog 19
    descriptiveName: 
    descriptiveNegativeName: 
    negativeButton: 
    positiveButton: 
    altNegativeButton: 
    altPositiveButton: 
    gravity: 0
    dead: 0.001
    sensitivity: 1
    snap: 0
    invert: 0
    type: 2
    axis: 19
    joyNum: 3
  - serializedVersion: 3
    m_Name: joystick 4 analog 0
    descriptiveName: 
    descriptiveNegativeName: 
    negativeButton: 
    positiveButton: 
    altNegativeButton: 
    altPositiveButton: 
    gravity: 0
    dead: 0.001
    sensitivity: 1
    snap: 0
    invert: 0
    type: 2
    axis: 0
    joyNum: 4
  - serializedVersion: 3
    m_Name: joystick 4 analog 1
    descriptiveName: 
    descriptiveNegativeName: 
    negativeButton: 
    positiveButton: 
    altNegativeButton: 
    altPositiveButton: 
    gravity: 0
    dead: 0.001
    sensitivity: 1
    snap: 0
    invert: 0
    type: 2
    axis: 1
    joyNum: 4
  - serializedVersion: 3
    m_Name: joystick 4 analog 2
    descriptiveName: 
    descriptiveNegativeName: 
    negativeButton: 
    positiveButton: 
    altNegativeButton: 
    altPositiveButton: 
    gravity: 0
    dead: 0.001
    sensitivity: 1
    snap: 0
    invert: 0
    type: 2
    axis: 2
    joyNum: 4
  - serializedVersion: 3
    m_Name: joystick 4 analog 3
    descriptiveName: 
    descriptiveNegativeName: 
    negativeButton: 
    positiveButton: 
    altNegativeButton: 
    altPositiveButton: 
    gravity: 0
    dead: 0.001
    sensitivity: 1
    snap: 0
    invert: 0
    type: 2
    axis: 3
    joyNum: 4
  - serializedVersion: 3
    m_Name: joystick 4 analog 4
    descriptiveName: 
    descriptiveNegativeName: 
    negativeButton: 
    positiveButton: 
    altNegativeButton: 
    altPositiveButton: 
    gravity: 0
    dead: 0.001
    sensitivity: 1
    snap: 0
    invert: 0
    type: 2
    axis: 4
    joyNum: 4
  - serializedVersion: 3
    m_Name: joystick 4 analog 5
    descriptiveName: 
    descriptiveNegativeName: 
    negativeButton: 
    positiveButton: 
    altNegativeButton: 
    altPositiveButton: 
    gravity: 0
    dead: 0.001
    sensitivity: 1
    snap: 0
    invert: 0
    type: 2
    axis: 5
    joyNum: 4
  - serializedVersion: 3
    m_Name: joystick 4 analog 6
    descriptiveName: 
    descriptiveNegativeName: 
    negativeButton: 
    positiveButton: 
    altNegativeButton: 
    altPositiveButton: 
    gravity: 0
    dead: 0.001
    sensitivity: 1
    snap: 0
    invert: 0
    type: 2
    axis: 6
    joyNum: 4
  - serializedVersion: 3
    m_Name: joystick 4 analog 7
    descriptiveName: 
    descriptiveNegativeName: 
    negativeButton: 
    positiveButton: 
    altNegativeButton: 
    altPositiveButton: 
    gravity: 0
    dead: 0.001
    sensitivity: 1
    snap: 0
    invert: 0
    type: 2
    axis: 7
    joyNum: 4
  - serializedVersion: 3
    m_Name: joystick 4 analog 8
    descriptiveName: 
    descriptiveNegativeName: 
    negativeButton: 
    positiveButton: 
    altNegativeButton: 
    altPositiveButton: 
    gravity: 0
    dead: 0.001
    sensitivity: 1
    snap: 0
    invert: 0
    type: 2
    axis: 8
    joyNum: 4
  - serializedVersion: 3
    m_Name: joystick 4 analog 9
    descriptiveName: 
    descriptiveNegativeName: 
    negativeButton: 
    positiveButton: 
    altNegativeButton: 
    altPositiveButton: 
    gravity: 0
    dead: 0.001
    sensitivity: 1
    snap: 0
    invert: 0
    type: 2
    axis: 9
    joyNum: 4
  - serializedVersion: 3
    m_Name: joystick 4 analog 10
    descriptiveName: 
    descriptiveNegativeName: 
    negativeButton: 
    positiveButton: 
    altNegativeButton: 
    altPositiveButton: 
    gravity: 0
    dead: 0.001
    sensitivity: 1
    snap: 0
    invert: 0
    type: 2
    axis: 10
    joyNum: 4
  - serializedVersion: 3
    m_Name: joystick 4 analog 11
    descriptiveName: 
    descriptiveNegativeName: 
    negativeButton: 
    positiveButton: 
    altNegativeButton: 
    altPositiveButton: 
    gravity: 0
    dead: 0.001
    sensitivity: 1
    snap: 0
    invert: 0
    type: 2
    axis: 11
    joyNum: 4
  - serializedVersion: 3
    m_Name: joystick 4 analog 12
    descriptiveName: 
    descriptiveNegativeName: 
    negativeButton: 
    positiveButton: 
    altNegativeButton: 
    altPositiveButton: 
    gravity: 0
    dead: 0.001
    sensitivity: 1
    snap: 0
    invert: 0
    type: 2
    axis: 12
    joyNum: 4
  - serializedVersion: 3
    m_Name: joystick 4 analog 13
    descriptiveName: 
    descriptiveNegativeName: 
    negativeButton: 
    positiveButton: 
    altNegativeButton: 
    altPositiveButton: 
    gravity: 0
    dead: 0.001
    sensitivity: 1
    snap: 0
    invert: 0
    type: 2
    axis: 13
    joyNum: 4
  - serializedVersion: 3
    m_Name: joystick 4 analog 14
    descriptiveName: 
    descriptiveNegativeName: 
    negativeButton: 
    positiveButton: 
    altNegativeButton: 
    altPositiveButton: 
    gravity: 0
    dead: 0.001
    sensitivity: 1
    snap: 0
    invert: 0
    type: 2
    axis: 14
    joyNum: 4
  - serializedVersion: 3
    m_Name: joystick 4 analog 15
    descriptiveName: 
    descriptiveNegativeName: 
    negativeButton: 
    positiveButton: 
    altNegativeButton: 
    altPositiveButton: 
    gravity: 0
    dead: 0.001
    sensitivity: 1
    snap: 0
    invert: 0
    type: 2
    axis: 15
    joyNum: 4
  - serializedVersion: 3
    m_Name: joystick 4 analog 16
    descriptiveName: 
    descriptiveNegativeName: 
    negativeButton: 
    positiveButton: 
    altNegativeButton: 
    altPositiveButton: 
    gravity: 0
    dead: 0.001
    sensitivity: 1
    snap: 0
    invert: 0
    type: 2
    axis: 16
    joyNum: 4
  - serializedVersion: 3
    m_Name: joystick 4 analog 17
    descriptiveName: 
    descriptiveNegativeName: 
    negativeButton: 
    positiveButton: 
    altNegativeButton: 
    altPositiveButton: 
    gravity: 0
    dead: 0.001
    sensitivity: 1
    snap: 0
    invert: 0
    type: 2
    axis: 17
    joyNum: 4
  - serializedVersion: 3
    m_Name: joystick 4 analog 18
    descriptiveName: 
    descriptiveNegativeName: 
    negativeButton: 
    positiveButton: 
    altNegativeButton: 
    altPositiveButton: 
    gravity: 0
    dead: 0.001
    sensitivity: 1
    snap: 0
    invert: 0
    type: 2
    axis: 18
    joyNum: 4
  - serializedVersion: 3
    m_Name: joystick 4 analog 19
    descriptiveName: 
    descriptiveNegativeName: 
    negativeButton: 
    positiveButton: 
    altNegativeButton: 
    altPositiveButton: 
    gravity: 0
    dead: 0.001
    sensitivity: 1
    snap: 0
    invert: 0
    type: 2
    axis: 19
    joyNum: 4
  - serializedVersion: 3
    m_Name: joystick 5 analog 0
    descriptiveName: 
    descriptiveNegativeName: 
    negativeButton: 
    positiveButton: 
    altNegativeButton: 
    altPositiveButton: 
    gravity: 0
    dead: 0.001
    sensitivity: 1
    snap: 0
    invert: 0
    type: 2
    axis: 0
    joyNum: 5
  - serializedVersion: 3
    m_Name: joystick 5 analog 1
    descriptiveName: 
    descriptiveNegativeName: 
    negativeButton: 
    positiveButton: 
    altNegativeButton: 
    altPositiveButton: 
    gravity: 0
    dead: 0.001
    sensitivity: 1
    snap: 0
    invert: 0
    type: 2
    axis: 1
    joyNum: 5
  - serializedVersion: 3
    m_Name: joystick 5 analog 2
    descriptiveName: 
    descriptiveNegativeName: 
    negativeButton: 
    positiveButton: 
    altNegativeButton: 
    altPositiveButton: 
    gravity: 0
    dead: 0.001
    sensitivity: 1
    snap: 0
    invert: 0
    type: 2
    axis: 2
    joyNum: 5
  - serializedVersion: 3
    m_Name: joystick 5 analog 3
    descriptiveName: 
    descriptiveNegativeName: 
    negativeButton: 
    positiveButton: 
    altNegativeButton: 
    altPositiveButton: 
    gravity: 0
    dead: 0.001
    sensitivity: 1
    snap: 0
    invert: 0
    type: 2
    axis: 3
    joyNum: 5
  - serializedVersion: 3
    m_Name: joystick 5 analog 4
    descriptiveName: 
    descriptiveNegativeName: 
    negativeButton: 
    positiveButton: 
    altNegativeButton: 
    altPositiveButton: 
    gravity: 0
    dead: 0.001
    sensitivity: 1
    snap: 0
    invert: 0
    type: 2
    axis: 4
    joyNum: 5
  - serializedVersion: 3
    m_Name: joystick 5 analog 5
    descriptiveName: 
    descriptiveNegativeName: 
    negativeButton: 
    positiveButton: 
    altNegativeButton: 
    altPositiveButton: 
    gravity: 0
    dead: 0.001
    sensitivity: 1
    snap: 0
    invert: 0
    type: 2
    axis: 5
    joyNum: 5
  - serializedVersion: 3
    m_Name: joystick 5 analog 6
    descriptiveName: 
    descriptiveNegativeName: 
    negativeButton: 
    positiveButton: 
    altNegativeButton: 
    altPositiveButton: 
    gravity: 0
    dead: 0.001
    sensitivity: 1
    snap: 0
    invert: 0
    type: 2
    axis: 6
    joyNum: 5
  - serializedVersion: 3
    m_Name: joystick 5 analog 7
    descriptiveName: 
    descriptiveNegativeName: 
    negativeButton: 
    positiveButton: 
    altNegativeButton: 
    altPositiveButton: 
    gravity: 0
    dead: 0.001
    sensitivity: 1
    snap: 0
    invert: 0
    type: 2
    axis: 7
    joyNum: 5
  - serializedVersion: 3
    m_Name: joystick 5 analog 8
    descriptiveName: 
    descriptiveNegativeName: 
    negativeButton: 
    positiveButton: 
    altNegativeButton: 
    altPositiveButton: 
    gravity: 0
    dead: 0.001
    sensitivity: 1
    snap: 0
    invert: 0
    type: 2
    axis: 8
    joyNum: 5
  - serializedVersion: 3
    m_Name: joystick 5 analog 9
    descriptiveName: 
    descriptiveNegativeName: 
    negativeButton: 
    positiveButton: 
    altNegativeButton: 
    altPositiveButton: 
    gravity: 0
    dead: 0.001
    sensitivity: 1
    snap: 0
    invert: 0
    type: 2
    axis: 9
    joyNum: 5
  - serializedVersion: 3
    m_Name: joystick 5 analog 10
    descriptiveName: 
    descriptiveNegativeName: 
    negativeButton: 
    positiveButton: 
    altNegativeButton: 
    altPositiveButton: 
    gravity: 0
    dead: 0.001
    sensitivity: 1
    snap: 0
    invert: 0
    type: 2
    axis: 10
    joyNum: 5
  - serializedVersion: 3
    m_Name: joystick 5 analog 11
    descriptiveName: 
    descriptiveNegativeName: 
    negativeButton: 
    positiveButton: 
    altNegativeButton: 
    altPositiveButton: 
    gravity: 0
    dead: 0.001
    sensitivity: 1
    snap: 0
    invert: 0
    type: 2
    axis: 11
    joyNum: 5
  - serializedVersion: 3
    m_Name: joystick 5 analog 12
    descriptiveName: 
    descriptiveNegativeName: 
    negativeButton: 
    positiveButton: 
    altNegativeButton: 
    altPositiveButton: 
    gravity: 0
    dead: 0.001
    sensitivity: 1
    snap: 0
    invert: 0
    type: 2
    axis: 12
    joyNum: 5
  - serializedVersion: 3
    m_Name: joystick 5 analog 13
    descriptiveName: 
    descriptiveNegativeName: 
    negativeButton: 
    positiveButton: 
    altNegativeButton: 
    altPositiveButton: 
    gravity: 0
    dead: 0.001
    sensitivity: 1
    snap: 0
    invert: 0
    type: 2
    axis: 13
    joyNum: 5
  - serializedVersion: 3
    m_Name: joystick 5 analog 14
    descriptiveName: 
    descriptiveNegativeName: 
    negativeButton: 
    positiveButton: 
    altNegativeButton: 
    altPositiveButton: 
    gravity: 0
    dead: 0.001
    sensitivity: 1
    snap: 0
    invert: 0
    type: 2
    axis: 14
    joyNum: 5
  - serializedVersion: 3
    m_Name: joystick 5 analog 15
    descriptiveName: 
    descriptiveNegativeName: 
    negativeButton: 
    positiveButton: 
    altNegativeButton: 
    altPositiveButton: 
    gravity: 0
    dead: 0.001
    sensitivity: 1
    snap: 0
    invert: 0
    type: 2
    axis: 15
    joyNum: 5
  - serializedVersion: 3
    m_Name: joystick 5 analog 16
    descriptiveName: 
    descriptiveNegativeName: 
    negativeButton: 
    positiveButton: 
    altNegativeButton: 
    altPositiveButton: 
    gravity: 0
    dead: 0.001
    sensitivity: 1
    snap: 0
    invert: 0
    type: 2
    axis: 16
    joyNum: 5
  - serializedVersion: 3
    m_Name: joystick 5 analog 17
    descriptiveName: 
    descriptiveNegativeName: 
    negativeButton: 
    positiveButton: 
    altNegativeButton: 
    altPositiveButton: 
    gravity: 0
    dead: 0.001
    sensitivity: 1
    snap: 0
    invert: 0
    type: 2
    axis: 17
    joyNum: 5
  - serializedVersion: 3
    m_Name: joystick 5 analog 18
    descriptiveName: 
    descriptiveNegativeName: 
    negativeButton: 
    positiveButton: 
    altNegativeButton: 
    altPositiveButton: 
    gravity: 0
    dead: 0.001
    sensitivity: 1
    snap: 0
    invert: 0
    type: 2
    axis: 18
    joyNum: 5
  - serializedVersion: 3
    m_Name: joystick 5 analog 19
    descriptiveName: 
    descriptiveNegativeName: 
    negativeButton: 
    positiveButton: 
    altNegativeButton: 
    altPositiveButton: 
    gravity: 0
    dead: 0.001
    sensitivity: 1
    snap: 0
    invert: 0
    type: 2
    axis: 19
    joyNum: 5
  - serializedVersion: 3
    m_Name: joystick 6 analog 0
    descriptiveName: 
    descriptiveNegativeName: 
    negativeButton: 
    positiveButton: 
    altNegativeButton: 
    altPositiveButton: 
    gravity: 0
    dead: 0.001
    sensitivity: 1
    snap: 0
    invert: 0
    type: 2
    axis: 0
    joyNum: 6
  - serializedVersion: 3
    m_Name: joystick 6 analog 1
    descriptiveName: 
    descriptiveNegativeName: 
    negativeButton: 
    positiveButton: 
    altNegativeButton: 
    altPositiveButton: 
    gravity: 0
    dead: 0.001
    sensitivity: 1
    snap: 0
    invert: 0
    type: 2
    axis: 1
    joyNum: 6
  - serializedVersion: 3
    m_Name: joystick 6 analog 2
    descriptiveName: 
    descriptiveNegativeName: 
    negativeButton: 
    positiveButton: 
    altNegativeButton: 
    altPositiveButton: 
    gravity: 0
    dead: 0.001
    sensitivity: 1
    snap: 0
    invert: 0
    type: 2
    axis: 2
    joyNum: 6
  - serializedVersion: 3
    m_Name: joystick 6 analog 3
    descriptiveName: 
    descriptiveNegativeName: 
    negativeButton: 
    positiveButton: 
    altNegativeButton: 
    altPositiveButton: 
    gravity: 0
    dead: 0.001
    sensitivity: 1
    snap: 0
    invert: 0
    type: 2
    axis: 3
    joyNum: 6
  - serializedVersion: 3
    m_Name: joystick 6 analog 4
    descriptiveName: 
    descriptiveNegativeName: 
    negativeButton: 
    positiveButton: 
    altNegativeButton: 
    altPositiveButton: 
    gravity: 0
    dead: 0.001
    sensitivity: 1
    snap: 0
    invert: 0
    type: 2
    axis: 4
    joyNum: 6
  - serializedVersion: 3
    m_Name: joystick 6 analog 5
    descriptiveName: 
    descriptiveNegativeName: 
    negativeButton: 
    positiveButton: 
    altNegativeButton: 
    altPositiveButton: 
    gravity: 0
    dead: 0.001
    sensitivity: 1
    snap: 0
    invert: 0
    type: 2
    axis: 5
    joyNum: 6
  - serializedVersion: 3
    m_Name: joystick 6 analog 6
    descriptiveName: 
    descriptiveNegativeName: 
    negativeButton: 
    positiveButton: 
    altNegativeButton: 
    altPositiveButton: 
    gravity: 0
    dead: 0.001
    sensitivity: 1
    snap: 0
    invert: 0
    type: 2
    axis: 6
    joyNum: 6
  - serializedVersion: 3
    m_Name: joystick 6 analog 7
    descriptiveName: 
    descriptiveNegativeName: 
    negativeButton: 
    positiveButton: 
    altNegativeButton: 
    altPositiveButton: 
    gravity: 0
    dead: 0.001
    sensitivity: 1
    snap: 0
    invert: 0
    type: 2
    axis: 7
    joyNum: 6
  - serializedVersion: 3
    m_Name: joystick 6 analog 8
    descriptiveName: 
    descriptiveNegativeName: 
    negativeButton: 
    positiveButton: 
    altNegativeButton: 
    altPositiveButton: 
    gravity: 0
    dead: 0.001
    sensitivity: 1
    snap: 0
    invert: 0
    type: 2
    axis: 8
    joyNum: 6
  - serializedVersion: 3
    m_Name: joystick 6 analog 9
    descriptiveName: 
    descriptiveNegativeName: 
    negativeButton: 
    positiveButton: 
    altNegativeButton: 
    altPositiveButton: 
    gravity: 0
    dead: 0.001
    sensitivity: 1
    snap: 0
    invert: 0
    type: 2
    axis: 9
    joyNum: 6
  - serializedVersion: 3
    m_Name: joystick 6 analog 10
    descriptiveName: 
    descriptiveNegativeName: 
    negativeButton: 
    positiveButton: 
    altNegativeButton: 
    altPositiveButton: 
    gravity: 0
    dead: 0.001
    sensitivity: 1
    snap: 0
    invert: 0
    type: 2
    axis: 10
    joyNum: 6
  - serializedVersion: 3
    m_Name: joystick 6 analog 11
    descriptiveName: 
    descriptiveNegativeName: 
    negativeButton: 
    positiveButton: 
    altNegativeButton: 
    altPositiveButton: 
    gravity: 0
    dead: 0.001
    sensitivity: 1
    snap: 0
    invert: 0
    type: 2
    axis: 11
    joyNum: 6
  - serializedVersion: 3
    m_Name: joystick 6 analog 12
    descriptiveName: 
    descriptiveNegativeName: 
    negativeButton: 
    positiveButton: 
    altNegativeButton: 
    altPositiveButton: 
    gravity: 0
    dead: 0.001
    sensitivity: 1
    snap: 0
    invert: 0
    type: 2
    axis: 12
    joyNum: 6
  - serializedVersion: 3
    m_Name: joystick 6 analog 13
    descriptiveName: 
    descriptiveNegativeName: 
    negativeButton: 
    positiveButton: 
    altNegativeButton: 
    altPositiveButton: 
    gravity: 0
    dead: 0.001
    sensitivity: 1
    snap: 0
    invert: 0
    type: 2
    axis: 13
    joyNum: 6
  - serializedVersion: 3
    m_Name: joystick 6 analog 14
    descriptiveName: 
    descriptiveNegativeName: 
    negativeButton: 
    positiveButton: 
    altNegativeButton: 
    altPositiveButton: 
    gravity: 0
    dead: 0.001
    sensitivity: 1
    snap: 0
    invert: 0
    type: 2
    axis: 14
    joyNum: 6
  - serializedVersion: 3
    m_Name: joystick 6 analog 15
    descriptiveName: 
    descriptiveNegativeName: 
    negativeButton: 
    positiveButton: 
    altNegativeButton: 
    altPositiveButton: 
    gravity: 0
    dead: 0.001
    sensitivity: 1
    snap: 0
    invert: 0
    type: 2
    axis: 15
    joyNum: 6
  - serializedVersion: 3
    m_Name: joystick 6 analog 16
    descriptiveName: 
    descriptiveNegativeName: 
    negativeButton: 
    positiveButton: 
    altNegativeButton: 
    altPositiveButton: 
    gravity: 0
    dead: 0.001
    sensitivity: 1
    snap: 0
    invert: 0
    type: 2
    axis: 16
    joyNum: 6
  - serializedVersion: 3
    m_Name: joystick 6 analog 17
    descriptiveName: 
    descriptiveNegativeName: 
    negativeButton: 
    positiveButton: 
    altNegativeButton: 
    altPositiveButton: 
    gravity: 0
    dead: 0.001
    sensitivity: 1
    snap: 0
    invert: 0
    type: 2
    axis: 17
    joyNum: 6
  - serializedVersion: 3
    m_Name: joystick 6 analog 18
    descriptiveName: 
    descriptiveNegativeName: 
    negativeButton: 
    positiveButton: 
    altNegativeButton: 
    altPositiveButton: 
    gravity: 0
    dead: 0.001
    sensitivity: 1
    snap: 0
    invert: 0
    type: 2
    axis: 18
    joyNum: 6
  - serializedVersion: 3
    m_Name: joystick 6 analog 19
    descriptiveName: 
    descriptiveNegativeName: 
    negativeButton: 
    positiveButton: 
    altNegativeButton: 
    altPositiveButton: 
    gravity: 0
    dead: 0.001
    sensitivity: 1
    snap: 0
    invert: 0
    type: 2
    axis: 19
    joyNum: 6
  - serializedVersion: 3
    m_Name: joystick 7 analog 0
    descriptiveName: 
    descriptiveNegativeName: 
    negativeButton: 
    positiveButton: 
    altNegativeButton: 
    altPositiveButton: 
    gravity: 0
    dead: 0.001
    sensitivity: 1
    snap: 0
    invert: 0
    type: 2
    axis: 0
    joyNum: 7
  - serializedVersion: 3
    m_Name: joystick 7 analog 1
    descriptiveName: 
    descriptiveNegativeName: 
    negativeButton: 
    positiveButton: 
    altNegativeButton: 
    altPositiveButton: 
    gravity: 0
    dead: 0.001
    sensitivity: 1
    snap: 0
    invert: 0
    type: 2
    axis: 1
    joyNum: 7
  - serializedVersion: 3
    m_Name: joystick 7 analog 2
    descriptiveName: 
    descriptiveNegativeName: 
    negativeButton: 
    positiveButton: 
    altNegativeButton: 
    altPositiveButton: 
    gravity: 0
    dead: 0.001
    sensitivity: 1
    snap: 0
    invert: 0
    type: 2
    axis: 2
    joyNum: 7
  - serializedVersion: 3
    m_Name: joystick 7 analog 3
    descriptiveName: 
    descriptiveNegativeName: 
    negativeButton: 
    positiveButton: 
    altNegativeButton: 
    altPositiveButton: 
    gravity: 0
    dead: 0.001
    sensitivity: 1
    snap: 0
    invert: 0
    type: 2
    axis: 3
    joyNum: 7
  - serializedVersion: 3
    m_Name: joystick 7 analog 4
    descriptiveName: 
    descriptiveNegativeName: 
    negativeButton: 
    positiveButton: 
    altNegativeButton: 
    altPositiveButton: 
    gravity: 0
    dead: 0.001
    sensitivity: 1
    snap: 0
    invert: 0
    type: 2
    axis: 4
    joyNum: 7
  - serializedVersion: 3
    m_Name: joystick 7 analog 5
    descriptiveName: 
    descriptiveNegativeName: 
    negativeButton: 
    positiveButton: 
    altNegativeButton: 
    altPositiveButton: 
    gravity: 0
    dead: 0.001
    sensitivity: 1
    snap: 0
    invert: 0
    type: 2
    axis: 5
    joyNum: 7
  - serializedVersion: 3
    m_Name: joystick 7 analog 6
    descriptiveName: 
    descriptiveNegativeName: 
    negativeButton: 
    positiveButton: 
    altNegativeButton: 
    altPositiveButton: 
    gravity: 0
    dead: 0.001
    sensitivity: 1
    snap: 0
    invert: 0
    type: 2
    axis: 6
    joyNum: 7
  - serializedVersion: 3
    m_Name: joystick 7 analog 7
    descriptiveName: 
    descriptiveNegativeName: 
    negativeButton: 
    positiveButton: 
    altNegativeButton: 
    altPositiveButton: 
    gravity: 0
    dead: 0.001
    sensitivity: 1
    snap: 0
    invert: 0
    type: 2
    axis: 7
    joyNum: 7
  - serializedVersion: 3
    m_Name: joystick 7 analog 8
    descriptiveName: 
    descriptiveNegativeName: 
    negativeButton: 
    positiveButton: 
    altNegativeButton: 
    altPositiveButton: 
    gravity: 0
    dead: 0.001
    sensitivity: 1
    snap: 0
    invert: 0
    type: 2
    axis: 8
    joyNum: 7
  - serializedVersion: 3
    m_Name: joystick 7 analog 9
    descriptiveName: 
    descriptiveNegativeName: 
    negativeButton: 
    positiveButton: 
    altNegativeButton: 
    altPositiveButton: 
    gravity: 0
    dead: 0.001
    sensitivity: 1
    snap: 0
    invert: 0
    type: 2
    axis: 9
    joyNum: 7
  - serializedVersion: 3
    m_Name: joystick 7 analog 10
    descriptiveName: 
    descriptiveNegativeName: 
    negativeButton: 
    positiveButton: 
    altNegativeButton: 
    altPositiveButton: 
    gravity: 0
    dead: 0.001
    sensitivity: 1
    snap: 0
    invert: 0
    type: 2
    axis: 10
    joyNum: 7
  - serializedVersion: 3
    m_Name: joystick 7 analog 11
    descriptiveName: 
    descriptiveNegativeName: 
    negativeButton: 
    positiveButton: 
    altNegativeButton: 
    altPositiveButton: 
    gravity: 0
    dead: 0.001
    sensitivity: 1
    snap: 0
    invert: 0
    type: 2
    axis: 11
    joyNum: 7
  - serializedVersion: 3
    m_Name: joystick 7 analog 12
    descriptiveName: 
    descriptiveNegativeName: 
    negativeButton: 
    positiveButton: 
    altNegativeButton: 
    altPositiveButton: 
    gravity: 0
    dead: 0.001
    sensitivity: 1
    snap: 0
    invert: 0
    type: 2
    axis: 12
    joyNum: 7
  - serializedVersion: 3
    m_Name: joystick 7 analog 13
    descriptiveName: 
    descriptiveNegativeName: 
    negativeButton: 
    positiveButton: 
    altNegativeButton: 
    altPositiveButton: 
    gravity: 0
    dead: 0.001
    sensitivity: 1
    snap: 0
    invert: 0
    type: 2
    axis: 13
    joyNum: 7
  - serializedVersion: 3
    m_Name: joystick 7 analog 14
    descriptiveName: 
    descriptiveNegativeName: 
    negativeButton: 
    positiveButton: 
    altNegativeButton: 
    altPositiveButton: 
    gravity: 0
    dead: 0.001
    sensitivity: 1
    snap: 0
    invert: 0
    type: 2
    axis: 14
    joyNum: 7
  - serializedVersion: 3
    m_Name: joystick 7 analog 15
    descriptiveName: 
    descriptiveNegativeName: 
    negativeButton: 
    positiveButton: 
    altNegativeButton: 
    altPositiveButton: 
    gravity: 0
    dead: 0.001
    sensitivity: 1
    snap: 0
    invert: 0
    type: 2
    axis: 15
    joyNum: 7
  - serializedVersion: 3
    m_Name: joystick 7 analog 16
    descriptiveName: 
    descriptiveNegativeName: 
    negativeButton: 
    positiveButton: 
    altNegativeButton: 
    altPositiveButton: 
    gravity: 0
    dead: 0.001
    sensitivity: 1
    snap: 0
    invert: 0
    type: 2
    axis: 16
    joyNum: 7
  - serializedVersion: 3
    m_Name: joystick 7 analog 17
    descriptiveName: 
    descriptiveNegativeName: 
    negativeButton: 
    positiveButton: 
    altNegativeButton: 
    altPositiveButton: 
    gravity: 0
    dead: 0.001
    sensitivity: 1
    snap: 0
    invert: 0
    type: 2
    axis: 17
    joyNum: 7
  - serializedVersion: 3
    m_Name: joystick 7 analog 18
    descriptiveName: 
    descriptiveNegativeName: 
    negativeButton: 
    positiveButton: 
    altNegativeButton: 
    altPositiveButton: 
    gravity: 0
    dead: 0.001
    sensitivity: 1
    snap: 0
    invert: 0
    type: 2
    axis: 18
    joyNum: 7
  - serializedVersion: 3
    m_Name: joystick 7 analog 19
    descriptiveName: 
    descriptiveNegativeName: 
    negativeButton: 
    positiveButton: 
    altNegativeButton: 
    altPositiveButton: 
    gravity: 0
    dead: 0.001
    sensitivity: 1
    snap: 0
    invert: 0
    type: 2
    axis: 19
    joyNum: 7
  - serializedVersion: 3
    m_Name: joystick 8 analog 0
    descriptiveName: 
    descriptiveNegativeName: 
    negativeButton: 
    positiveButton: 
    altNegativeButton: 
    altPositiveButton: 
    gravity: 0
    dead: 0.001
    sensitivity: 1
    snap: 0
    invert: 0
    type: 2
    axis: 0
    joyNum: 8
  - serializedVersion: 3
    m_Name: joystick 8 analog 1
    descriptiveName: 
    descriptiveNegativeName: 
    negativeButton: 
    positiveButton: 
    altNegativeButton: 
    altPositiveButton: 
    gravity: 0
    dead: 0.001
    sensitivity: 1
    snap: 0
    invert: 0
    type: 2
    axis: 1
    joyNum: 8
  - serializedVersion: 3
    m_Name: joystick 8 analog 2
    descriptiveName: 
    descriptiveNegativeName: 
    negativeButton: 
    positiveButton: 
    altNegativeButton: 
    altPositiveButton: 
    gravity: 0
    dead: 0.001
    sensitivity: 1
    snap: 0
    invert: 0
    type: 2
    axis: 2
    joyNum: 8
  - serializedVersion: 3
    m_Name: joystick 8 analog 3
    descriptiveName: 
    descriptiveNegativeName: 
    negativeButton: 
    positiveButton: 
    altNegativeButton: 
    altPositiveButton: 
    gravity: 0
    dead: 0.001
    sensitivity: 1
    snap: 0
    invert: 0
    type: 2
    axis: 3
    joyNum: 8
  - serializedVersion: 3
    m_Name: joystick 8 analog 4
    descriptiveName: 
    descriptiveNegativeName: 
    negativeButton: 
    positiveButton: 
    altNegativeButton: 
    altPositiveButton: 
    gravity: 0
    dead: 0.001
    sensitivity: 1
    snap: 0
    invert: 0
    type: 2
    axis: 4
    joyNum: 8
  - serializedVersion: 3
    m_Name: joystick 8 analog 5
    descriptiveName: 
    descriptiveNegativeName: 
    negativeButton: 
    positiveButton: 
    altNegativeButton: 
    altPositiveButton: 
    gravity: 0
    dead: 0.001
    sensitivity: 1
    snap: 0
    invert: 0
    type: 2
    axis: 5
    joyNum: 8
  - serializedVersion: 3
    m_Name: joystick 8 analog 6
    descriptiveName: 
    descriptiveNegativeName: 
    negativeButton: 
    positiveButton: 
    altNegativeButton: 
    altPositiveButton: 
    gravity: 0
    dead: 0.001
    sensitivity: 1
    snap: 0
    invert: 0
    type: 2
    axis: 6
    joyNum: 8
  - serializedVersion: 3
    m_Name: joystick 8 analog 7
    descriptiveName: 
    descriptiveNegativeName: 
    negativeButton: 
    positiveButton: 
    altNegativeButton: 
    altPositiveButton: 
    gravity: 0
    dead: 0.001
    sensitivity: 1
    snap: 0
    invert: 0
    type: 2
    axis: 7
    joyNum: 8
  - serializedVersion: 3
    m_Name: joystick 8 analog 8
    descriptiveName: 
    descriptiveNegativeName: 
    negativeButton: 
    positiveButton: 
    altNegativeButton: 
    altPositiveButton: 
    gravity: 0
    dead: 0.001
    sensitivity: 1
    snap: 0
    invert: 0
    type: 2
    axis: 8
    joyNum: 8
  - serializedVersion: 3
    m_Name: joystick 8 analog 9
    descriptiveName: 
    descriptiveNegativeName: 
    negativeButton: 
    positiveButton: 
    altNegativeButton: 
    altPositiveButton: 
    gravity: 0
    dead: 0.001
    sensitivity: 1
    snap: 0
    invert: 0
    type: 2
    axis: 9
    joyNum: 8
  - serializedVersion: 3
    m_Name: joystick 8 analog 10
    descriptiveName: 
    descriptiveNegativeName: 
    negativeButton: 
    positiveButton: 
    altNegativeButton: 
    altPositiveButton: 
    gravity: 0
    dead: 0.001
    sensitivity: 1
    snap: 0
    invert: 0
    type: 2
    axis: 10
    joyNum: 8
  - serializedVersion: 3
    m_Name: joystick 8 analog 11
    descriptiveName: 
    descriptiveNegativeName: 
    negativeButton: 
    positiveButton: 
    altNegativeButton: 
    altPositiveButton: 
    gravity: 0
    dead: 0.001
    sensitivity: 1
    snap: 0
    invert: 0
    type: 2
    axis: 11
    joyNum: 8
  - serializedVersion: 3
    m_Name: joystick 8 analog 12
    descriptiveName: 
    descriptiveNegativeName: 
    negativeButton: 
    positiveButton: 
    altNegativeButton: 
    altPositiveButton: 
    gravity: 0
    dead: 0.001
    sensitivity: 1
    snap: 0
    invert: 0
    type: 2
    axis: 12
    joyNum: 8
  - serializedVersion: 3
    m_Name: joystick 8 analog 13
    descriptiveName: 
    descriptiveNegativeName: 
    negativeButton: 
    positiveButton: 
    altNegativeButton: 
    altPositiveButton: 
    gravity: 0
    dead: 0.001
    sensitivity: 1
    snap: 0
    invert: 0
    type: 2
    axis: 13
    joyNum: 8
  - serializedVersion: 3
    m_Name: joystick 8 analog 14
    descriptiveName: 
    descriptiveNegativeName: 
    negativeButton: 
    positiveButton: 
    altNegativeButton: 
    altPositiveButton: 
    gravity: 0
    dead: 0.001
    sensitivity: 1
    snap: 0
    invert: 0
    type: 2
    axis: 14
    joyNum: 8
  - serializedVersion: 3
    m_Name: joystick 8 analog 15
    descriptiveName: 
    descriptiveNegativeName: 
    negativeButton: 
    positiveButton: 
    altNegativeButton: 
    altPositiveButton: 
    gravity: 0
    dead: 0.001
    sensitivity: 1
    snap: 0
    invert: 0
    type: 2
    axis: 15
    joyNum: 8
  - serializedVersion: 3
    m_Name: joystick 8 analog 16
    descriptiveName: 
    descriptiveNegativeName: 
    negativeButton: 
    positiveButton: 
    altNegativeButton: 
    altPositiveButton: 
    gravity: 0
    dead: 0.001
    sensitivity: 1
    snap: 0
    invert: 0
    type: 2
    axis: 16
    joyNum: 8
  - serializedVersion: 3
    m_Name: joystick 8 analog 17
    descriptiveName: 
    descriptiveNegativeName: 
    negativeButton: 
    positiveButton: 
    altNegativeButton: 
    altPositiveButton: 
    gravity: 0
    dead: 0.001
    sensitivity: 1
    snap: 0
    invert: 0
    type: 2
    axis: 17
    joyNum: 8
  - serializedVersion: 3
    m_Name: joystick 8 analog 18
    descriptiveName: 
    descriptiveNegativeName: 
    negativeButton: 
    positiveButton: 
    altNegativeButton: 
    altPositiveButton: 
    gravity: 0
    dead: 0.001
    sensitivity: 1
    snap: 0
    invert: 0
    type: 2
    axis: 18
    joyNum: 8
  - serializedVersion: 3
    m_Name: joystick 8 analog 19
    descriptiveName: 
    descriptiveNegativeName: 
    negativeButton: 
    positiveButton: 
    altNegativeButton: 
    altPositiveButton: 
    gravity: 0
    dead: 0.001
    sensitivity: 1
    snap: 0
    invert: 0
    type: 2
    axis: 19
    joyNum: 8
  - serializedVersion: 3
    m_Name: joystick 9 analog 0
    descriptiveName: 
    descriptiveNegativeName: 
    negativeButton: 
    positiveButton: 
    altNegativeButton: 
    altPositiveButton: 
    gravity: 0
    dead: 0.001
    sensitivity: 1
    snap: 0
    invert: 0
    type: 2
    axis: 0
    joyNum: 9
  - serializedVersion: 3
    m_Name: joystick 9 analog 1
    descriptiveName: 
    descriptiveNegativeName: 
    negativeButton: 
    positiveButton: 
    altNegativeButton: 
    altPositiveButton: 
    gravity: 0
    dead: 0.001
    sensitivity: 1
    snap: 0
    invert: 0
    type: 2
    axis: 1
    joyNum: 9
  - serializedVersion: 3
    m_Name: joystick 9 analog 2
    descriptiveName: 
    descriptiveNegativeName: 
    negativeButton: 
    positiveButton: 
    altNegativeButton: 
    altPositiveButton: 
    gravity: 0
    dead: 0.001
    sensitivity: 1
    snap: 0
    invert: 0
    type: 2
    axis: 2
    joyNum: 9
  - serializedVersion: 3
    m_Name: joystick 9 analog 3
    descriptiveName: 
    descriptiveNegativeName: 
    negativeButton: 
    positiveButton: 
    altNegativeButton: 
    altPositiveButton: 
    gravity: 0
    dead: 0.001
    sensitivity: 1
    snap: 0
    invert: 0
    type: 2
    axis: 3
    joyNum: 9
  - serializedVersion: 3
    m_Name: joystick 9 analog 4
    descriptiveName: 
    descriptiveNegativeName: 
    negativeButton: 
    positiveButton: 
    altNegativeButton: 
    altPositiveButton: 
    gravity: 0
    dead: 0.001
    sensitivity: 1
    snap: 0
    invert: 0
    type: 2
    axis: 4
    joyNum: 9
  - serializedVersion: 3
    m_Name: joystick 9 analog 5
    descriptiveName: 
    descriptiveNegativeName: 
    negativeButton: 
    positiveButton: 
    altNegativeButton: 
    altPositiveButton: 
    gravity: 0
    dead: 0.001
    sensitivity: 1
    snap: 0
    invert: 0
    type: 2
    axis: 5
    joyNum: 9
  - serializedVersion: 3
    m_Name: joystick 9 analog 6
    descriptiveName: 
    descriptiveNegativeName: 
    negativeButton: 
    positiveButton: 
    altNegativeButton: 
    altPositiveButton: 
    gravity: 0
    dead: 0.001
    sensitivity: 1
    snap: 0
    invert: 0
    type: 2
    axis: 6
    joyNum: 9
  - serializedVersion: 3
    m_Name: joystick 9 analog 7
    descriptiveName: 
    descriptiveNegativeName: 
    negativeButton: 
    positiveButton: 
    altNegativeButton: 
    altPositiveButton: 
    gravity: 0
    dead: 0.001
    sensitivity: 1
    snap: 0
    invert: 0
    type: 2
    axis: 7
    joyNum: 9
  - serializedVersion: 3
    m_Name: joystick 9 analog 8
    descriptiveName: 
    descriptiveNegativeName: 
    negativeButton: 
    positiveButton: 
    altNegativeButton: 
    altPositiveButton: 
    gravity: 0
    dead: 0.001
    sensitivity: 1
    snap: 0
    invert: 0
    type: 2
    axis: 8
    joyNum: 9
  - serializedVersion: 3
    m_Name: joystick 9 analog 9
    descriptiveName: 
    descriptiveNegativeName: 
    negativeButton: 
    positiveButton: 
    altNegativeButton: 
    altPositiveButton: 
    gravity: 0
    dead: 0.001
    sensitivity: 1
    snap: 0
    invert: 0
    type: 2
    axis: 9
    joyNum: 9
  - serializedVersion: 3
    m_Name: joystick 9 analog 10
    descriptiveName: 
    descriptiveNegativeName: 
    negativeButton: 
    positiveButton: 
    altNegativeButton: 
    altPositiveButton: 
    gravity: 0
    dead: 0.001
    sensitivity: 1
    snap: 0
    invert: 0
    type: 2
    axis: 10
    joyNum: 9
  - serializedVersion: 3
    m_Name: joystick 9 analog 11
    descriptiveName: 
    descriptiveNegativeName: 
    negativeButton: 
    positiveButton: 
    altNegativeButton: 
    altPositiveButton: 
    gravity: 0
    dead: 0.001
    sensitivity: 1
    snap: 0
    invert: 0
    type: 2
    axis: 11
    joyNum: 9
  - serializedVersion: 3
    m_Name: joystick 9 analog 12
    descriptiveName: 
    descriptiveNegativeName: 
    negativeButton: 
    positiveButton: 
    altNegativeButton: 
    altPositiveButton: 
    gravity: 0
    dead: 0.001
    sensitivity: 1
    snap: 0
    invert: 0
    type: 2
    axis: 12
    joyNum: 9
  - serializedVersion: 3
    m_Name: joystick 9 analog 13
    descriptiveName: 
    descriptiveNegativeName: 
    negativeButton: 
    positiveButton: 
    altNegativeButton: 
    altPositiveButton: 
    gravity: 0
    dead: 0.001
    sensitivity: 1
    snap: 0
    invert: 0
    type: 2
    axis: 13
    joyNum: 9
  - serializedVersion: 3
    m_Name: joystick 9 analog 14
    descriptiveName: 
    descriptiveNegativeName: 
    negativeButton: 
    positiveButton: 
    altNegativeButton: 
    altPositiveButton: 
    gravity: 0
    dead: 0.001
    sensitivity: 1
    snap: 0
    invert: 0
    type: 2
    axis: 14
    joyNum: 9
  - serializedVersion: 3
    m_Name: joystick 9 analog 15
    descriptiveName: 
    descriptiveNegativeName: 
    negativeButton: 
    positiveButton: 
    altNegativeButton: 
    altPositiveButton: 
    gravity: 0
    dead: 0.001
    sensitivity: 1
    snap: 0
    invert: 0
    type: 2
    axis: 15
    joyNum: 9
  - serializedVersion: 3
    m_Name: joystick 9 analog 16
    descriptiveName: 
    descriptiveNegativeName: 
    negativeButton: 
    positiveButton: 
    altNegativeButton: 
    altPositiveButton: 
    gravity: 0
    dead: 0.001
    sensitivity: 1
    snap: 0
    invert: 0
    type: 2
    axis: 16
    joyNum: 9
  - serializedVersion: 3
    m_Name: joystick 9 analog 17
    descriptiveName: 
    descriptiveNegativeName: 
    negativeButton: 
    positiveButton: 
    altNegativeButton: 
    altPositiveButton: 
    gravity: 0
    dead: 0.001
    sensitivity: 1
    snap: 0
    invert: 0
    type: 2
    axis: 17
    joyNum: 9
  - serializedVersion: 3
    m_Name: joystick 9 analog 18
    descriptiveName: 
    descriptiveNegativeName: 
    negativeButton: 
    positiveButton: 
    altNegativeButton: 
    altPositiveButton: 
    gravity: 0
    dead: 0.001
    sensitivity: 1
    snap: 0
    invert: 0
    type: 2
    axis: 18
    joyNum: 9
  - serializedVersion: 3
    m_Name: joystick 9 analog 19
    descriptiveName: 
    descriptiveNegativeName: 
    negativeButton: 
    positiveButton: 
    altNegativeButton: 
    altPositiveButton: 
    gravity: 0
    dead: 0.001
    sensitivity: 1
    snap: 0
    invert: 0
    type: 2
    axis: 19
    joyNum: 9
  - serializedVersion: 3
    m_Name: joystick 10 analog 0
    descriptiveName: 
    descriptiveNegativeName: 
    negativeButton: 
    positiveButton: 
    altNegativeButton: 
    altPositiveButton: 
    gravity: 0
    dead: 0.001
    sensitivity: 1
    snap: 0
    invert: 0
    type: 2
    axis: 0
    joyNum: 10
  - serializedVersion: 3
    m_Name: joystick 10 analog 1
    descriptiveName: 
    descriptiveNegativeName: 
    negativeButton: 
    positiveButton: 
    altNegativeButton: 
    altPositiveButton: 
    gravity: 0
    dead: 0.001
    sensitivity: 1
    snap: 0
    invert: 0
    type: 2
    axis: 1
    joyNum: 10
  - serializedVersion: 3
    m_Name: joystick 10 analog 2
    descriptiveName: 
    descriptiveNegativeName: 
    negativeButton: 
    positiveButton: 
    altNegativeButton: 
    altPositiveButton: 
    gravity: 0
    dead: 0.001
    sensitivity: 1
    snap: 0
    invert: 0
    type: 2
    axis: 2
    joyNum: 10
  - serializedVersion: 3
    m_Name: joystick 10 analog 3
    descriptiveName: 
    descriptiveNegativeName: 
    negativeButton: 
    positiveButton: 
    altNegativeButton: 
    altPositiveButton: 
    gravity: 0
    dead: 0.001
    sensitivity: 1
    snap: 0
    invert: 0
    type: 2
    axis: 3
    joyNum: 10
  - serializedVersion: 3
    m_Name: joystick 10 analog 4
    descriptiveName: 
    descriptiveNegativeName: 
    negativeButton: 
    positiveButton: 
    altNegativeButton: 
    altPositiveButton: 
    gravity: 0
    dead: 0.001
    sensitivity: 1
    snap: 0
    invert: 0
    type: 2
    axis: 4
    joyNum: 10
  - serializedVersion: 3
    m_Name: joystick 10 analog 5
    descriptiveName: 
    descriptiveNegativeName: 
    negativeButton: 
    positiveButton: 
    altNegativeButton: 
    altPositiveButton: 
    gravity: 0
    dead: 0.001
    sensitivity: 1
    snap: 0
    invert: 0
    type: 2
    axis: 5
    joyNum: 10
  - serializedVersion: 3
    m_Name: joystick 10 analog 6
    descriptiveName: 
    descriptiveNegativeName: 
    negativeButton: 
    positiveButton: 
    altNegativeButton: 
    altPositiveButton: 
    gravity: 0
    dead: 0.001
    sensitivity: 1
    snap: 0
    invert: 0
    type: 2
    axis: 6
    joyNum: 10
  - serializedVersion: 3
    m_Name: joystick 10 analog 7
    descriptiveName: 
    descriptiveNegativeName: 
    negativeButton: 
    positiveButton: 
    altNegativeButton: 
    altPositiveButton: 
    gravity: 0
    dead: 0.001
    sensitivity: 1
    snap: 0
    invert: 0
    type: 2
    axis: 7
    joyNum: 10
  - serializedVersion: 3
    m_Name: joystick 10 analog 8
    descriptiveName: 
    descriptiveNegativeName: 
    negativeButton: 
    positiveButton: 
    altNegativeButton: 
    altPositiveButton: 
    gravity: 0
    dead: 0.001
    sensitivity: 1
    snap: 0
    invert: 0
    type: 2
    axis: 8
    joyNum: 10
  - serializedVersion: 3
    m_Name: joystick 10 analog 9
    descriptiveName: 
    descriptiveNegativeName: 
    negativeButton: 
    positiveButton: 
    altNegativeButton: 
    altPositiveButton: 
    gravity: 0
    dead: 0.001
    sensitivity: 1
    snap: 0
    invert: 0
    type: 2
    axis: 9
    joyNum: 10
  - serializedVersion: 3
    m_Name: joystick 10 analog 10
    descriptiveName: 
    descriptiveNegativeName: 
    negativeButton: 
    positiveButton: 
    altNegativeButton: 
    altPositiveButton: 
    gravity: 0
    dead: 0.001
    sensitivity: 1
    snap: 0
    invert: 0
    type: 2
    axis: 10
    joyNum: 10
  - serializedVersion: 3
    m_Name: joystick 10 analog 11
    descriptiveName: 
    descriptiveNegativeName: 
    negativeButton: 
    positiveButton: 
    altNegativeButton: 
    altPositiveButton: 
    gravity: 0
    dead: 0.001
    sensitivity: 1
    snap: 0
    invert: 0
    type: 2
    axis: 11
    joyNum: 10
  - serializedVersion: 3
    m_Name: joystick 10 analog 12
    descriptiveName: 
    descriptiveNegativeName: 
    negativeButton: 
    positiveButton: 
    altNegativeButton: 
    altPositiveButton: 
    gravity: 0
    dead: 0.001
    sensitivity: 1
    snap: 0
    invert: 0
    type: 2
    axis: 12
    joyNum: 10
  - serializedVersion: 3
    m_Name: joystick 10 analog 13
    descriptiveName: 
    descriptiveNegativeName: 
    negativeButton: 
    positiveButton: 
    altNegativeButton: 
    altPositiveButton: 
    gravity: 0
    dead: 0.001
    sensitivity: 1
    snap: 0
    invert: 0
    type: 2
    axis: 13
    joyNum: 10
  - serializedVersion: 3
    m_Name: joystick 10 analog 14
    descriptiveName: 
    descriptiveNegativeName: 
    negativeButton: 
    positiveButton: 
    altNegativeButton: 
    altPositiveButton: 
    gravity: 0
    dead: 0.001
    sensitivity: 1
    snap: 0
    invert: 0
    type: 2
    axis: 14
    joyNum: 10
  - serializedVersion: 3
    m_Name: joystick 10 analog 15
    descriptiveName: 
    descriptiveNegativeName: 
    negativeButton: 
    positiveButton: 
    altNegativeButton: 
    altPositiveButton: 
    gravity: 0
    dead: 0.001
    sensitivity: 1
    snap: 0
    invert: 0
    type: 2
    axis: 15
    joyNum: 10
  - serializedVersion: 3
    m_Name: joystick 10 analog 16
    descriptiveName: 
    descriptiveNegativeName: 
    negativeButton: 
    positiveButton: 
    altNegativeButton: 
    altPositiveButton: 
    gravity: 0
    dead: 0.001
    sensitivity: 1
    snap: 0
    invert: 0
    type: 2
    axis: 16
    joyNum: 10
  - serializedVersion: 3
    m_Name: joystick 10 analog 17
    descriptiveName: 
    descriptiveNegativeName: 
    negativeButton: 
    positiveButton: 
    altNegativeButton: 
    altPositiveButton: 
    gravity: 0
    dead: 0.001
    sensitivity: 1
    snap: 0
    invert: 0
    type: 2
    axis: 17
    joyNum: 10
  - serializedVersion: 3
    m_Name: joystick 10 analog 18
    descriptiveName: 
    descriptiveNegativeName: 
    negativeButton: 
    positiveButton: 
    altNegativeButton: 
    altPositiveButton: 
    gravity: 0
    dead: 0.001
    sensitivity: 1
    snap: 0
    invert: 0
    type: 2
    axis: 18
    joyNum: 10
  - serializedVersion: 3
    m_Name: joystick 10 analog 19
    descriptiveName: 
    descriptiveNegativeName: 
    negativeButton: 
    positiveButton: 
    altNegativeButton: 
    altPositiveButton: 
    gravity: 0
    dead: 0.001
    sensitivity: 1
    snap: 0
    invert: 0
    type: 2
    axis: 19
    joyNum: 10
  - serializedVersion: 3
    m_Name: mouse x
    descriptiveName: 
    descriptiveNegativeName: 
    negativeButton: 
    positiveButton: 
    altNegativeButton: 
    altPositiveButton: 
    gravity: 0
    dead: 0.001
    sensitivity: 1
    snap: 0
    invert: 0
    type: 1
    axis: 0
    joyNum: 0
  - serializedVersion: 3
    m_Name: mouse y
    descriptiveName: 
    descriptiveNegativeName: 
    negativeButton: 
    positiveButton: 
    altNegativeButton: 
    altPositiveButton: 
    gravity: 0
    dead: 0.001
    sensitivity: 1
    snap: 0
    invert: 0
    type: 1
    axis: 1
    joyNum: 0
  - serializedVersion: 3
    m_Name: mouse z
    descriptiveName: 
    descriptiveNegativeName: 
    negativeButton: 
    positiveButton: 
    altNegativeButton: 
    altPositiveButton: 
    gravity: 0
    dead: 0.001
    sensitivity: 1
    snap: 0
    invert: 0
    type: 1
    axis: 2
    joyNum: 0
  - serializedVersion: 3
    m_Name: Horizontal_Keyboard
    descriptiveName: 
    descriptiveNegativeName: 
    negativeButton: left
    positiveButton: right
    altNegativeButton: a
    altPositiveButton: d
    gravity: 3
    dead: 0.001
    sensitivity: 0.1
    snap: 1
    invert: 0
    type: 0
    axis: 0
    joyNum: 0
  - serializedVersion: 3
    m_Name: Vertical_Keyboard
    descriptiveName: 
    descriptiveNegativeName: 
    negativeButton: down
    positiveButton: up
    altNegativeButton: s
    altPositiveButton: w
    gravity: 3
    dead: 0.001
    sensitivity: 0.1
    snap: 1
    invert: 0
    type: 0
    axis: 0
    joyNum: 0
  - serializedVersion: 3
    m_Name: Horizontal_Mouse
    descriptiveName: 
    descriptiveNegativeName: 
    negativeButton: 
    positiveButton: 
    altNegativeButton: 
    altPositiveButton: 
    gravity: 3
    dead: 0.001
    sensitivity: 0.1
    snap: 1
    invert: 0
    type: 1
    axis: 0
    joyNum: 0
  - serializedVersion: 3
    m_Name: Vertical_Mouse
    descriptiveName: 
    descriptiveNegativeName: 
    negativeButton: 
    positiveButton: 
    altNegativeButton: 
    altPositiveButton: 
    gravity: 3
    dead: 0.001
    sensitivity: 0.1
    snap: 1
    invert: 0
    type: 1
    axis: 1
    joyNum: 0
  - serializedVersion: 3
    m_Name: Space_Keyboard
    descriptiveName: 
    descriptiveNegativeName: 
    negativeButton: 
    positiveButton: space
    altNegativeButton: 
    altPositiveButton: 
    gravity: 1000
    dead: 0.001
    sensitivity: 1000
    snap: 0
    invert: 0
    type: 0
    axis: 0
    joyNum: 0
  - serializedVersion: 3
    m_Name: Shift_Keyboard
    descriptiveName: 
    descriptiveNegativeName: 
    negativeButton: 
    positiveButton: left shift
    altNegativeButton: 
    altPositiveButton: right shift
    gravity: 1000
    dead: 0.001
    sensitivity: 1000
    snap: 0
    invert: 0
    type: 0
    axis: 0
    joyNum: 0
  - serializedVersion: 3
    m_Name: Enter_Keyboard
    descriptiveName: 
    descriptiveNegativeName: 
    negativeButton: 
    positiveButton: enter
    altNegativeButton: 
    altPositiveButton: 
    gravity: 1000
    dead: 0.001
    sensitivity: 1000
    snap: 0
    invert: 0
    type: 0
    axis: 0
    joyNum: 0
  - serializedVersion: 3
    m_Name: Escape_Keyboard
    descriptiveName: 
    descriptiveNegativeName: 
    negativeButton: 
    positiveButton: escape
    altNegativeButton: 
    altPositiveButton: 
    gravity: 1000
    dead: 0.001
    sensitivity: 1000
    snap: 0
    invert: 0
    type: 0
    axis: 0
    joyNum: 0
  - serializedVersion: 3
    m_Name: Horizontal2_Xbox_J1
    descriptiveName: 
    descriptiveNegativeName: 
    negativeButton: 
    positiveButton: 
    altNegativeButton: 
    altPositiveButton: 
    gravity: 0
    dead: 0.19
    sensitivity: 1
    snap: 0
    invert: 0
    type: 2
    axis: 3
    joyNum: 1
  - serializedVersion: 3
    m_Name: Horizontal2_Xbox_J2
    descriptiveName: 
    descriptiveNegativeName: 
    negativeButton: 
    positiveButton: 
    altNegativeButton: 
    altPositiveButton: 
    gravity: 0
    dead: 0.19
    sensitivity: 1
    snap: 0
    invert: 0
    type: 2
    axis: 3
    joyNum: 2
  - serializedVersion: 3
    m_Name: Horizontal_Xbox_J1
    descriptiveName: 
    descriptiveNegativeName: 
    negativeButton: 
    positiveButton: 
    altNegativeButton: 
    altPositiveButton: 
    gravity: 0
    dead: 0.19
    sensitivity: 1
    snap: 0
    invert: 0
    type: 2
    axis: 0
    joyNum: 1
  - serializedVersion: 3
    m_Name: Horizontal_Xbox_J2
    descriptiveName: 
    descriptiveNegativeName: 
    negativeButton: 
    positiveButton: 
    altNegativeButton: 
    altPositiveButton: 
    gravity: 0
    dead: 0.19
    sensitivity: 1
    snap: 0
    invert: 0
    type: 2
    axis: 0
    joyNum: 2
  - serializedVersion: 3
    m_Name: Vertical2_Xbox_J1
    descriptiveName: 
    descriptiveNegativeName: 
    negativeButton: 
    positiveButton: 
    altNegativeButton: 
    altPositiveButton: 
    gravity: 0
    dead: 0.19
    sensitivity: 1
    snap: 0
    invert: 0
    type: 2
    axis: 4
    joyNum: 1
  - serializedVersion: 3
    m_Name: Vertical2_Xbox_J2
    descriptiveName: 
    descriptiveNegativeName: 
    negativeButton: 
    positiveButton: 
    altNegativeButton: 
    altPositiveButton: 
    gravity: 0
    dead: 0.19
    sensitivity: 1
    snap: 0
    invert: 0
    type: 2
    axis: 4
    joyNum: 2
  - serializedVersion: 3
    m_Name: Vertical_Xbox_J1
    descriptiveName: 
    descriptiveNegativeName: 
    negativeButton: 
    positiveButton: 
    altNegativeButton: 
    altPositiveButton: 
    gravity: 0
    dead: 0.19
    sensitivity: 1
    snap: 0
    invert: 0
    type: 2
    axis: 1
    joyNum: 1
  - serializedVersion: 3
    m_Name: Vertical_Xbox_J2
    descriptiveName: 
    descriptiveNegativeName: 
    negativeButton: 
    positiveButton: 
    altNegativeButton: 
    altPositiveButton: 
    gravity: 0
    dead: 0.19
    sensitivity: 1
    snap: 0
    invert: 0
    type: 2
    axis: 1
    joyNum: 2
  - serializedVersion: 3
    m_Name: LeftTrigger_Xbox_J1
    descriptiveName: 
    descriptiveNegativeName: 
    negativeButton: 
    positiveButton: 
    altNegativeButton: 
    altPositiveButton: 
    gravity: 1000
    dead: 0.001
    sensitivity: 1000
    snap: 0
    invert: 0
    type: 2
    axis: 8
    joyNum: 1
  - serializedVersion: 3
    m_Name: LeftTrigger_Xbox_J2
    descriptiveName: 
    descriptiveNegativeName: 
    negativeButton: 
    positiveButton: 
    altNegativeButton: 
    altPositiveButton: 
    gravity: 1000
    dead: 0.001
    sensitivity: 1000
    snap: 0
    invert: 0
    type: 2
    axis: 8
    joyNum: 2
  - serializedVersion: 3
    m_Name: RightTrigger_Xbox_J1
    descriptiveName: 
    descriptiveNegativeName: 
    negativeButton: 
    positiveButton: 
    altNegativeButton: 
    altPositiveButton: 
    gravity: 1000
    dead: 0.001
    sensitivity: 1000
    snap: 0
    invert: 0
    type: 2
    axis: 9
    joyNum: 1
  - serializedVersion: 3
    m_Name: RightTrigger_Xbox_J2
    descriptiveName: 
    descriptiveNegativeName: 
    negativeButton: 
    positiveButton: 
    altNegativeButton: 
    altPositiveButton: 
    gravity: 1000
    dead: 0.001
    sensitivity: 1000
    snap: 0
    invert: 0
    type: 2
    axis: 9
    joyNum: 2
  - serializedVersion: 3
    m_Name: Triggers_Xbox_J1
    descriptiveName: 
    descriptiveNegativeName: 
    negativeButton: 
    positiveButton: 
    altNegativeButton: 
    altPositiveButton: 
    gravity: 1000
    dead: 0.001
    sensitivity: 1000
    snap: 0
    invert: 0
    type: 2
    axis: 2
    joyNum: 1
  - serializedVersion: 3
    m_Name: Triggers_Xbox_J2
    descriptiveName: 
    descriptiveNegativeName: 
    negativeButton: 
    positiveButton: 
    altNegativeButton: 
    altPositiveButton: 
    gravity: 1000
    dead: 0.001
    sensitivity: 1000
    snap: 0
    invert: 0
    type: 2
    axis: 2
    joyNum: 2
  - serializedVersion: 3
    m_Name: LeftBumper_Xbox_J1
    descriptiveName: 
    descriptiveNegativeName: 
    negativeButton: 
    positiveButton: joystick button 4
    altNegativeButton: 
    altPositiveButton: 
    gravity: 1000
    dead: 0.001
    sensitivity: 1000
    snap: 0
    invert: 0
    type: 0
    axis: 0
    joyNum: 1
  - serializedVersion: 3
    m_Name: LeftBumper_Xbox_J2
    descriptiveName: 
    descriptiveNegativeName: 
    negativeButton: 
    positiveButton: joystick button 4
    altNegativeButton: 
    altPositiveButton: 
    gravity: 1000
    dead: 0.001
    sensitivity: 1000
    snap: 0
    invert: 0
    type: 0
    axis: 0
    joyNum: 2
  - serializedVersion: 3
    m_Name: RightBumper_Xbox_J1
    descriptiveName: 
    descriptiveNegativeName: 
    negativeButton: 
    positiveButton: joystick button 5
    altNegativeButton: 
    altPositiveButton: 
    gravity: 1000
    dead: 0.001
    sensitivity: 1000
    snap: 0
    invert: 0
    type: 0
    axis: 0
    joyNum: 1
  - serializedVersion: 3
    m_Name: RightBumper_Xbox_J2
    descriptiveName: 
    descriptiveNegativeName: 
    negativeButton: 
    positiveButton: joystick button 5
    altNegativeButton: 
    altPositiveButton: 
    gravity: 1000
    dead: 0.001
    sensitivity: 1000
    snap: 0
    invert: 0
    type: 0
    axis: 0
    joyNum: 2
  - serializedVersion: 3
    m_Name: Bumbers_Xbox_J1
    descriptiveName: 
    descriptiveNegativeName: 
    negativeButton: 
    positiveButton: joystick button 4
    altNegativeButton: 
    altPositiveButton: joystick button 5
    gravity: 1000
    dead: 0.001
    sensitivity: 1000
    snap: 0
    invert: 0
    type: 0
    axis: 0
    joyNum: 1
  - serializedVersion: 3
    m_Name: Bumpers_Xbox_J2
    descriptiveName: 
    descriptiveNegativeName: 
    negativeButton: 
    positiveButton: joystick button 4
    altNegativeButton: 
    altPositiveButton: joystick button 5
    gravity: 1000
    dead: 0.001
    sensitivity: 1000
    snap: 0
    invert: 0
    type: 0
    axis: 0
    joyNum: 2
  - serializedVersion: 3
    m_Name: Start_Xbox_J1
    descriptiveName: 
    descriptiveNegativeName: 
    negativeButton: 
    positiveButton: joystick button 7
    altNegativeButton: 
    altPositiveButton: 
    gravity: 1000
    dead: 0.001
    sensitivity: 1000
    snap: 0
    invert: 0
    type: 0
    axis: 0
    joyNum: 1
  - serializedVersion: 3
    m_Name: Start_Xbox_J2
    descriptiveName: 
    descriptiveNegativeName: 
    negativeButton: 
    positiveButton: joystick button 7
    altNegativeButton: 
    altPositiveButton: 
    gravity: 1000
    dead: 0.001
    sensitivity: 1000
    snap: 0
    invert: 0
    type: 0
    axis: 0
    joyNum: 2
  - serializedVersion: 3
    m_Name: Submit_Xbox_J1
    descriptiveName: 
    descriptiveNegativeName: 
    negativeButton: 
    positiveButton: joystick button 0
    altNegativeButton: 
    altPositiveButton: 
    gravity: 1000
    dead: 0.001
    sensitivity: 1000
    snap: 0
    invert: 0
    type: 0
    axis: 0
    joyNum: 1
  - serializedVersion: 3
    m_Name: Submit_Xbox_J2
    descriptiveName: 
    descriptiveNegativeName: 
    negativeButton: 
    positiveButton: joystick button 0
    altNegativeButton: 
    altPositiveButton: 
    gravity: 1000
    dead: 0.001
    sensitivity: 1000
    snap: 0
    invert: 0
    type: 0
    axis: 0
    joyNum: 2
  - serializedVersion: 3
    m_Name: Back_Xbox_J1
    descriptiveName: 
    descriptiveNegativeName: 
    negativeButton: 
    positiveButton: joystick button 1
    altNegativeButton: 
    altPositiveButton: 
    gravity: 1000
    dead: 0.001
    sensitivity: 1000
    snap: 0
    invert: 0
    type: 0
    axis: 0
    joyNum: 1
  - serializedVersion: 3
    m_Name: Back_Xbox_J2
    descriptiveName: 
    descriptiveNegativeName: 
    negativeButton: 
    positiveButton: joystick button 1
    altNegativeButton: 
    altPositiveButton: 
    gravity: 1000
    dead: 0.001
    sensitivity: 1000
    snap: 0
    invert: 0
    type: 0
    axis: 0
    joyNum: 2
  - serializedVersion: 3
    m_Name: Mouse ScrollWheel
    descriptiveName: 
    descriptiveNegativeName: 
    negativeButton: 
    positiveButton: 
    altNegativeButton: 
    altPositiveButton: 
    gravity: 0
    dead: 0.001
    sensitivity: 0.1
    snap: 0
    invert: 0
    type: 1
    axis: 2
    joyNum: 0
  - serializedVersion: 3
    m_Name: Horizontal
    descriptiveName: 
    descriptiveNegativeName: 
    negativeButton: left
    positiveButton: right
    altNegativeButton: a
    altPositiveButton: d
    gravity: 3
    dead: 0.001
    sensitivity: 3
    snap: 1
    invert: 0
    type: 0
    axis: 0
    joyNum: 0
  - serializedVersion: 3
    m_Name: Horizontal
    descriptiveName: 
    descriptiveNegativeName: 
    negativeButton: 
    positiveButton: 
    altNegativeButton: 
    altPositiveButton: 
    gravity: 0
    dead: 0.19
    sensitivity: 1
    snap: 0
    invert: 0
    type: 2
    axis: 0
    joyNum: 0
  - serializedVersion: 3
    m_Name: Vertical
    descriptiveName: 
    descriptiveNegativeName: 
    negativeButton: down
    positiveButton: up
    altNegativeButton: s
    altPositiveButton: w
    gravity: 3
    dead: 0.001
    sensitivity: 3
    snap: 1
    invert: 0
    type: 0
    axis: 0
    joyNum: 0
  - serializedVersion: 3
    m_Name: Vertical
    descriptiveName: 
    descriptiveNegativeName: 
    negativeButton: 
    positiveButton: 
    altNegativeButton: 
    altPositiveButton: 
    gravity: 0
    dead: 0.19
    sensitivity: 1
    snap: 0
    invert: 1
    type: 2
    axis: 0
    joyNum: 0
  - serializedVersion: 3
    m_Name: Submit
    descriptiveName: 
    descriptiveNegativeName: 
    negativeButton: 
    positiveButton: return
    altNegativeButton: 
    altPositiveButton: joystick button 0
    gravity: 1000
    dead: 0.001
    sensitivity: 1000
    snap: 0
    invert: 0
    type: 0
    axis: 0
    joyNum: 0
  - serializedVersion: 3
    m_Name: Submit
    descriptiveName: 
    descriptiveNegativeName: 
    negativeButton: 
    positiveButton: enter
    altNegativeButton: 
    altPositiveButton: space
    gravity: 1000
    dead: 0.001
    sensitivity: 1000
    snap: 0
    invert: 0
    type: 0
    axis: 0
    joyNum: 0
  - serializedVersion: 3
    m_Name: Cancel
    descriptiveName: 
    descriptiveNegativeName: 
    negativeButton: 
    positiveButton: escape
    altNegativeButton: 
    altPositiveButton: joystick button 1
    gravity: 1000
    dead: 0.001
    sensitivity: 1000
    snap: 0
    invert: 0
    type: 0
    axis: 0
    joyNum: 0
