%YAML 1.1
%TAG !u! tag:unity3d.com,2011:
--- !u!114 &11400000
MonoBehaviour:
  m_ObjectHideFlags: 0
  m_CorrespondingSourceObject: {fileID: 0}
  m_PrefabInstance: {fileID: 0}
  m_PrefabAsset: {fileID: 0}
  m_GameObject: {fileID: 0}
  m_Enabled: 1
  m_EditorHideFlags: 0
  m_Script: {fileID: 11500000, guid: 86dd2f3bc2d6ae3499d7209d54426c4c, type: 3}
  m_Name: Rocks 1
  m_EditorClassIdentifier: 
  tiles:
  - entity: {fileID: 0}
    icon: {fileID: 0}
    index: 0
  - entity: {fileID: 0}
    icon: {fileID: 0}
    index: 0
  - entity: {fileID: 0}
    icon: {fileID: 0}
    index: 0
  - entity: {fileID: 0}
    icon: {fileID: 0}
    index: 0
  - entity: {fileID: 0}
    icon: {fileID: 0}
    index: 0
  - entity: {fileID: 0}
    icon: {fileID: 0}
    index: 0
  - entity: {fileID: 114858700303950304, guid: 32548fbdd2a73e84d810cc6c469dcea0, type: 3}
    icon: {fileID: 0}
    index: 6
  - entity: {fileID: 0}
    icon: {fileID: 0}
    index: 0
  - entity: {fileID: 0}
    icon: {fileID: 0}
    index: 0
  - entity: {fileID: 0}
    icon: {fileID: 0}
    index: 0
  - entity: {fileID: 0}
    icon: {fileID: 0}
    index: 0
  - entity: {fileID: 0}
    icon: {fileID: 0}
    index: 0
