%YAML 1.1
%TAG !u! tag:unity3d.com,2011:
--- !u!114 &11400000
MonoBehaviour:
  m_ObjectHideFlags: 0
  m_PrefabParentObject: {fileID: 0}
  m_PrefabInternal: {fileID: 0}
  m_GameObject: {fileID: 0}
  m_Enabled: 1
  m_EditorHideFlags: 0
  m_Script: {fileID: 11500000, guid: 6357c7eade809fc488293fb9d8b091a5, type: 3}
  m_Name: ControllerXbox
  m_EditorClassIdentifier: 
  icon: {fileID: 0}
  horizontalAxis: 1
  verticalAxis: 1
  controllerType: 1
  action: 256
  special: 257
  actionMouse: 0
  specialMouse: 0
